<?xml version="1.0" encoding="utf-8"?>
<!-- Generator: Adobe Illustrator 22.1.0, SVG Export Plug-In . SVG Version: 6.00 Build 0)  -->
<svg version="1.1" id="圖層_1" xmlns="http://www.w3.org/2000/svg" xmlns:xlink="http://www.w3.org/1999/xlink" x="0px" y="0px"
	 viewBox="0 0 24 24" style="enable-background:new 0 0 24 24;" xml:space="preserve">
<style type="text/css">
	.st0{clip-path:url(#SVGID_2_);}
</style>
<g>
	<defs>
		<rect id="SVGID_1_" width="24" height="24"/>
	</defs>
	<clipPath id="SVGID_2_">
		<use xlink:href="#SVGID_1_"  style="overflow:visible;"/>
	</clipPath>
	<path class="st0" d="M21,10c-1.1,0-2,0.9-2,2v3H5v-3c0-1.1-0.9-2-2-2s-2,0.9-2,2v5c0,1.1,0.9,2,2,2h18c1.1,0,2-0.9,2-2v-5
		C23,10.9,22.1,10,21,10z M18,5H6C4.9,5,4,5.9,4,7v2.2c1.2,0.4,2,1.5,2,2.8v2h12v-2c0-1.3,0.8-2.4,2-2.8V7C20,5.9,19.1,5,18,5z"/>
</g>
</svg>
